Chapter 10 Tibbles | Working Through R for Data Science
…
            Working Through R for Data Science

Chapter 10 Tibbles

10.1 Introduction

We’ll be learning about tibbles here. Tibbles are a fancier and more updated version of data.frames. We need to have the library tidyverse loaded for this section.

10.2 Creating tibbles

You can coerce a data frame into a tibble using as_tibble().

as_tibble(iris)

## # A tibble: 150 x 5
##    Sepal.Length Sepal.Width Petal.Length Petal.Width Species
##           <dbl>       <dbl>        <dbl>       <dbl> <fct>  
##  1          5.1         3.5          1.4         0.2 setosa 
##  2          4.9         3            1.4         0.2 setosa 
##  3          4.7         3.2          1.3         0.2 setosa 
##  4          4.6         3.1          1.5         0.2 setosa 
##  5          5           3.6          1.4         0.2 setosa 
##  6          5.4         3.9          1.7         0.4 setosa 
##  7          4.6         3.4          1.4         0.3 setosa 
##  8          5           3.4          1.5         0.2 setosa 
##  9          4.4         2.9          1.4         0.2 setosa 
## 10          4.9         3.1          1.5         0.1 setosa 
## # ... with 140 more rows
…
There are two main differences in the usage of a tibble vs. a classic data.frame: printing and subsetting.

10.3.1 Printing

Tibbles have a refined print method that shows only the first 10 rows, and all the columns that fit on the screen. This makes it much easier to work with large data. In ddition to its name, each column reports its type, a nice feature borrowed from str():

tibble(
  a = lubridate::now() + runif(1e3) * 86400,
  b = lubridate::today() + runif(1e3) * 30,
  c = 1:1e3,
  d = runif(1e3),
  e = sample(letters, 1e3, replace = TRUE)
)

## # A tibble: 1,000 x 5
##    a                   b              c      d e    
##    <dttm>              <date>     <int>  <dbl> <chr>
##  1 2021-08-12 02:57:13 2021-08-15     1 0.0852 f    
##  2 2021-08-11 18:59:09 2021-09-04     2 0.731  o    
##  3 2021-08-11 21:50:47 2021-08-18     3 0.267  i    
##  4 2021-08-12 13:10:53 2021-09-05     4 0.550  s    
##  5 2021-08-11 21:09:59 2021-08-12     5 0.655  u    
##  6 2021-08-11 18:48:59 2021-08-21     6 0.695  s    
##  7 2021-08-12 13:57:25 2021-08-13     7 0.730  y    
##  8 2021-08-12 07:00:17 2021-08-27     8 0.763  q    
##  9 2021-08-12 12:28:04 2021-09-02     9 0.839  d    
## 10 2021-08-12 01:50:24 2021-09-06    10 0.976  o    
## # ... with 990 more rows

Tibbles are designed so that you don’t accidentally overwhelm your console when you print large data frames. But sometimes you need more output than the default display. There are a few options that can help.

First you can explicitly print() the data frame and control the number of rows (n) and the width of the display. width = Inf will display all columns:

nycflights13::flights %>%
  print(n=10, width=Inf)

## # A tibble: 336,776 x 19
##     year month   day dep_time sched_dep_time dep_delay arr_time sched_arr_time
##    <int> <int> <int>    <int>          <int>     <dbl>    <int>          <int>
##  1  2013     1     1      517            515         2      830            819
##  2  2013     1     1      533            529         4      850            830
##  3  2013     1     1      542            540         2      923            850
##  4  2013     1     1      544            545        -1     1004           1022
##  5  2013     1     1      554            600        -6      812            837
##  6  2013     1     1      554            558        -4      740            728
##  7  2013     1     1      555            600        -5      913            854
##  8  2013     1     1      557            600        -3      709            723
##  9  2013     1     1      557            600        -3      838            846
## 10  2013     1     1      558            600        -2      753            745
##    arr_delay carrier flight tailnum origin dest  air_time distance  hour minute
##        <dbl> <chr>    <int> <chr>   <chr>  <chr>    <dbl>    <dbl> <dbl>  <dbl>
##  1        11 UA        1545 N14228  EWR    IAH        227     1400     5     15
##  2        20 UA        1714 N24211  LGA    IAH        227     1416     5     29
##  3        33 AA        1141 N619AA  JFK    MIA        160     1089     5     40
##  4       -18 B6         725 N804JB  JFK    BQN        183     1576     5     45
##  5       -25 DL         461 N668DN  LGA    ATL        116      762     6      0
##  6        12 UA        1696 N39463  EWR    ORD        150      719     5     58
##  7        19 B6         507 N516JB  EWR    FLL        158     1065     6      0
##  8       -14 EV        5708 N829AS  LGA    IAD         53      229     6      0
##  9        -8 B6          79 N593JB  JFK    MCO        140      944     6      0
## 10         8 AA         301 N3ALAA  LGA    ORD        138      733     6      0
##    time_hour          
##    <dttm>             
##  1 2013-01-01 05:00:00
##  2 2013-01-01 05:00:00
##  3 2013-01-01 05:00:00
##  4 2013-01-01 05:00:00
##  5 2013-01-01 06:00:00
##  6 2013-01-01 05:00:00
##  7 2013-01-01 06:00:00
##  8 2013-01-01 06:00:00
##  9 2013-01-01 06:00:00
## 10 2013-01-01 06:00:00
## # ... with 336,766 more rows
…
